@startuml
autonumber
hide footbox
title Purchase Sequence Diagram
actor PurchaseHandler as PH
participant PurchaseUseCase as PUC
participant DeviceController as DC
participant CardReader as CR
participant TransactionInitializer as TI
participant TransactionValidator as TV
participant ReconciliationHandler as RCH
participant FallbackHandler as FH
participant TransactionAuthorizer as TA
participant TerminalRepository as TREPO
participant SessionKeyHandler as SKH
participant ReceiptHandler as RH
participant NepsSpecInfo as NSI
participant NepsSpecInfo as NSI
participant MACGenerator as MG
participant PurchaseMessageSender as S
participant AdministrativeMessageSender as AMS
participant FinancialAdviceMessageSender as FAMS
participant ReversalAdviceMessageSender as RAMS

participant ISOMessageResponse as RES
participant MessageParser as MessageParser
participant TCPClient as P
actor Neps as N

PH -> PUC :processPurchaseRequest
activate PUC
|||

PUC -> DC : isDeviceReady()
activate DC
DC -> DC : isPrinterReady()
DC -> DC : areCardSlotsReady()
DC -> DC : isGPSEnabled()
|||
return response : TerminalStatus
|||

PUC -> TI : startInitialization()
activate TI
TI->TREPO : fetchData()
activate TREPO
return response data
return response paramResponse
|||
note right
    It fetches data and prepare purchase request
        -Emv Param
        -ForceOnlineIndicator
        -Supported Card Types
        -Txn Detail

end note



PUC->TV : validateRequest(transactionRequest)
activate TV

return response isValid
|||

PUC->CR : read(readParam)
activate CR
CR->CR : notifyCardRead()
note right
CardReaderNotifier should be passed on Constructor
end note
return response ReadCardResponse
|||

PUC -> TV : validateTransaction(readCardResponse)
activate TV
TV -> FH : handleFallback(readCardResponse)
activate FH
note right
In case of read card failed
check whether there is fallback option
end note
return response fallBackResult
|||

TV -> TREPO : fetchCardScheme()
activate TREPO
return response : CardScheme
|||
TV -> TV : isValidTransaction(cardScheme,readCardResponse) :response validityResponse
note right
 Checks - luhnCheck
        - isTransactionAllowed
        - chip is present
        - ApplicationError
        - User Cancelled
        - timeout
        - Wave Again
        - Swipe Again


end note
|||

return response validityResponse
|||




PUC -> TA : authorize(txnType,readCardResponse)
activate TA

TA -> TREPO : fetchTransactionSetTable()
activate TREPO
note right
Naming To be changed
end note
return response : transactionSetTable
|||
return response : authReqResponse
|||

PUC -> CR : processEmvNext
activate CR
return response : ReadCardResponse
deactivate REPO
|||

PUC -> TA : authorizeUser(readCardResponse)
activate TA
note right

Check whether PIN is required
end note
|||
TA->TA : authenticateUser()

|||
return response userAuthorizationResponse
|||

PUC -> TREPO : fetchTerminalInfo()
activate TREPO
return response : terminalInfo
|||

PUC->PUC : prepareContext(readCardResponse) : response context
activate PUC
deactivate PUC
|||
PUC->PUC : prepareSpecInfo() : response prepareSpecInfo
activate PUC
PUC--> NSI : <<create>>
deactivate PUC
|||
PUC --> S : <<create(context,specInfo)>>
activate S
PUC -> S : send()
|||
S --> P : <<create(connectionParam)>>
activate P
S -> P : dial()
P --> S : response hostInfo
S -> S : prepareRequestPayload() : response ISO8583Message
activate S
deactivate S
|||

S -> MG : getMac(requestContext)
activate MG
note left
Request Context contains switch configuration
end note
return :    response ISO8583MessageWithMac
|||

S->S : prepareRequestPacket(requestPayLoad,hostInfo): response requestPacket
activate S
deactivate S
|||
S -> P : write(requestPacket)
P -> N : write(Data)
activate N
|||
return response :data
S-> P : read()
|||
return response :responsePacket
|||
S -> MP : parse(specInfo,responsePacket)
activate MP
|||
return response : iso8583Message
S -> S : preparePurchaseResponse(iso8583Message,hostInfo)
activate S
S -->> RES :<<create(iso8583Message,hostInfo)>>
activate RES
S-> RES : build()
return response : purchaseResponse
deactivate S
return response : purchaseResponse
|||

PUC -> SKH : updateSession()
activate SKH
note right
Increase KSN incase of MADA
end note
return response : updateSessionKeyResponse
|||


PUC -> TREPO : saveData(readCardResponse)
activate TREPO
note right
Saves STAN RRN and connection detail in database
end note
return response:saveDataResponse
|||

PUC -> TV : validate()
activate TV
note right
In case of incorrect PIN Check For PIN retry condition
end note
return response: validityResponse
|||

PUC -> CR : setOnlineResult()
activate CR
|||
note right
 Writes Field 55 Data on Card
end note
return response : setOnlineResultResponse

|||

PUC -> TV : validateSetOnlineResultResponse()
activate TV
note right
Checks Txn Declined by card
end note
return response : validityResponse
|||

PUC -> RCH : updateReconciliationCount()
activate RCH
return response : updateReconciliationCountResponse
|||
|||

PUC-> RH : print(readCardResponse,setOnlineResultResponse)
activate RH
return response : printReceiptResponse
|||

PUC-> TREPO : fetchRetailerMessage()
activate TREPO
return response: retailerMessage
|||

PUC-> RCH : checkAutoReconciliation()
activate RCH
return response : autoReconciliationResponse
|||

PUC-> PUC : prepareTxnResult()
activate PUC
deactivate PUC
|||

PUC --> PH : response TxnResult

























@enduml